%YAML 1.1
%TAG !u! tag:unity3d.com,2011:
--- !u!1045 &1
EditorBuildSettings:
  m_ObjectHideFlags: 0
  serializedVersion: 2
  m_Scenes:
  - enabled: 1
    path: Assets/Scenes/Menu_scn.unity
    guid: cc74683d6e290f841ab66c48c11c59a5
  - enabled: 1
    path: Assets/Scenes/AR_scn.unity
    guid: 2cda990e2423bbf4892e6590ba056729
  m_configObjects: {}
